{
  "Annuler": [
    "anuler"
  ],
  "Annulé": [
    "cancellé"
  ],
  "Bonjour,": [
    "bonjours,",
    "bonjou,"
  ],
  "Combien": [
    "cmb"
  ],
  "Déçu,": [
    "décus"
  ],
  "Est-ce": [
    "l'es"
  ],
  "Extérieur": [
    "exterieu"
  ],
  "J'ai": [
    "ja"
  ],
  "Je veux": [
    "jveu"
  ],
  "Oui": [
    "ouep"
  ],
  "Quand": [
    "qnad"
  ],
  "allo, êtes-vous": [
    "alo etes"
  ],
  "besoin": [
    "basoen"
  ],
  "c'est": [
    "c,es",
    "c",
    "c.est"
  ],
  "cliniques": [
    "clniques"
  ],
  "dans": [
    "den"
  ],
  "de me": [
    "d m"
  ],
  "est-ce": [
    "esce"
  ],
  "et qu'est-ce": [
    "er quesque"
  ],
  "fait": [
    "fsit"
  ],
  "il faut que je fasse": [
    "fau jfasse"
  ],
  "j'ai": [
    "j au",
    "j,ai",
    "jai"
  ],
  "j'ai déjà": [
    "jau dja"
  ],
  "j'aimerais": [
    "jaimerai"
  ],
  "j'essaie": [
    "j'aissais"
  ],
  "j'essaie d'appeler": [
    "jessais dappeler"
  ],
  "j'ouvre": [
    "jouvre"
  ],
  "je": [
    "jme"
  ],
  "l'heure": [
    "lheure"
  ],
  "modification": [
    "modifiquation"
  ],
  "n'ai": [
    "n.ai",
    "n'es"
  ],
  "où est-ce": [
    "c ou"
  ],
  "pandémie": [
    "pendamie"
  ],
  "petit peu": [
    "ti peu"
  ],
  "peux-tu": [
    "peu tu"
  ],
  "pfizer": [
    "phszer"
  ],
  "première": [
    "premiere"
  ],
  "rendez": [
    "rander"
  ],
  "reçu": [
    "rçu",
    "recu"
  ],
  "réponse": [
    "repinses"
  ],
  "sais bien": [
    "ses ben"
  ],
  "si je": [
    "ci he"
  ],
  "soeur": [
    "sœur"
  ],
  "symptômes": [
    "simptaumes"
  ],
  "vaccins": [
    "vacin",
    "vasin"
  ],
  "votre": [
    "vofre "
  ],
  "à partir": [
    "a partie"
  ]
}
