{
  "lang": "qc",
  "name": "covid_bot",
  "original": true,
  "samples": [
    {
      "label": "Je suis allé à candiac tôt ce matin pour la deuxième dose pour se faire dire qu'il n'y avait plus de dose il en avait seulement 800",
      "text": "suis aller a candiac tot ce matin pour la 2 dose pour se faire dire qu,il n,y avait plus de dose il en avait seulement 800"
    },
    {
      "label": "Déçu, j'ai 79 ans et aller perdre mon temps et me faire geler. C'est froid ce matin c'est insultant",
      "text": "décus j,ai 79 ans et aller perdre mon temps et me faire geler .c,est froid ce matin ,c,est insultant ,"
    },
    {
      "label": "Ce n'est pas écrit",
      "text": "c est pas ecrit"
    },
    {
      "label": "Quel est l'heure du couvre feu pour Montréal",
      "text": "quel est lheure du couvre fue pour montreal"
    },
    {
      "label": "Extérieur nous sommes 8 personnes de différentes adresses est-ce correct",
      "text": "exterieu nous sommes 8 personne de différentes adresse est-ce correct"
    },
    {
      "label": "J'ai reçu ma preuve de vaccination mais je n'ai pas d'imprimante",
      "text": "j' ai rec¸u ma preuv de vaccination mais je n' ai pas d'imprimnte"
    },
    {
      "label": "Je ne comprends pas votre logique j'ai le droit de recevoir 8 personnes de bulles differentes",
      "text": "je ne comprends pas vote logique jai le droit de recevoir 8 personnes de bulbes differents"
    },
    {
      "label": "Je ne peux pas recevoir mes 3 enfants avec leurs enfants ce qui fait 3 bulles parce qu'ils sont plus que 8. Ce n'est pas logique ni juste",
      "text": "je ne peut pas recevoir mes 3 enfants avec leurs enfants cecqui fait 3 bukbes perce wue ils sont plus que 8 pas logique ni justeo"
    },
    {
      "label": "A quoi s'attendre ?",
      "text": "aquoi s,attendre?"
    },
    {
      "label": "Je n'ai pas reçu mon code qr",
      "text": "je n'es pas reçu mon code qr"
    },
    {
      "label": "Aujourd'hui j'ai été malade un petit peu pensez-vous que j'ai le covid",
      "text": "aujourd'hui j'ai été malade un ti peu penser vous que j'ai le covid"
    },
    {
      "label": "Bonjour mon épouse a reçu sur mon courriel sa preuve de vaccination et je ne l'ai pas reçu car j'ai été vacciné en même temps que mon épouse et mon épouse a reçu sa preuve de vaccination le 19 mai dernier",
      "text": "bonjour mon épouse a rçu sur mon courriel sa preuve de vaccination et je ne l'ai pas reçu car j'aiété vacciné en même temps que mon épouse et mon épouse a reçu sa preuv e de vaccination le 19 mai dernier"
    },
    {
      "label": "Annuler un rendez-vous",
      "text": "cancellé.un.rendez.vous"
    },
    {
      "label": "Bonjour, je suis en chaudière-appalache l'islet. à partir de quelle date je pourrais faire un mariage à l'extérieur dans notre cour",
      "text": "bonjou, je suis en chaudière-appalache l'islet) à partir de quelle date je pourrait faire un mariage à l,extérieur dans notre cours"
    },
    {
      "label": "Séance conseil présence",
      "text": "séacne consil présenc"
    },
    {
      "label": "Oui, merci beaucoup pour l'aide",
      "text": "ouep, so much pour l aide"
    },
    {
      "label": "Anuller un rendez-vous",
      "text": "anuler un rv"
    },
    {
      "label": "J'ai reçu un message texte me donnant un numéro",
      "text": "jai recu un message txt me donnant un no"
    },
    {
      "label": "Quand ma preuve qr va-t-elle arriver",
      "text": "qnad preuve qr va telleariver"
    },
    {
      "label": "J'ai téléchargé la preuve et je ne sais même pas où c'est sur le téléphone sans carte",
      "text": "j au telechargema preuve et je sais même pas c est où dur le cell pas de carte"
    },
    {
      "label": "Merci mon mari et moi vous ont donné une seule adresse pour les deux",
      "text": "merci n mari et moi vins donné au une seule adresse pour les deux"
    },
    {
      "label": "J'ai déjà eu le covid",
      "text": "jau dja eu le covid"
    },
    {
      "label": "En pandémie j'ai besoin que ma préscription soit remplie et revisée par un docteur",
      "text": "en pendamie ai besoin que mon prescription soit rempli et reviser par un dr"
    },
    {
      "label": "Est-ce que les centres correctionel prennent des détenus de fin de semaine",
      "text": "l'es centre corectionel prenne tu dés détenue de fin de semaine"
    },
    {
      "label": "Quand va-t-on tomber en orange",
      "text": "quand tomb en oraneàge"
    },
    {
      "label": "Votre réponse est insuffisante",
      "text": "vofre repinses et insufissantes"
    },
    {
      "label": "Comment savoir si je suis apte à recevoir le vaccin",
      "text": "comment savoir ci he suis apte a recevoir le vaccin"
    },
    {
      "label": "Je peux manger avec ma soeur à la même table, 2 adresses différentes",
      "text": "je peu tu manger avec ma sœur à la même table, 2 adresse diferente"
    },
    {
      "label": "Est-ce que je peux voir mes amis",
      "text": "es que je peux voir mes ami"
    },
    {
      "label": "Combien de monde pour un pic-nique extérieur",
      "text": "cmb de monde pour unb picnic ext"
    },
    {
      "label": "y a-t-il un numéro de téléphone où l'on peut appeler pour un rendez-vous",
      "text": "y as il un numéro de téléphone ou l ont peut appeler pour un rendezvous"
    },
    {
      "label": "est-ce qu'il y a seulement les terrasses d'ouvertes",
      "text": "esce qu’il y a juste les terrasses doucerte"
    },
    {
      "label": "je veux savoir quand est-ce qu'on peut enlever nos masque quand on fait nos commisions et aussi à l'épicerie",
      "text": "je veux s avoir c est quand qu on peux enlever nos masque quans on fait nos commision et a l épicerie"
    },
    {
      "label": "Ta maladie la est imaginaire, tirer du 3,75/4 de ce qui se passe dans le monde",
      "text": "ta maladie la est imaginaire, tirer du 3,75/4 de se qui se passe dans le monde"
    },
    {
      "label": "je sais bien que",
      "text": "je ses ben que"
    },
    {
      "label": "où est-ce que je peux vraiment me procurer les réponses à mes questions",
      "text": "mais réponse aux quetions ses ou vraiment que je peux me les procuré"
    },
    {
      "label": "J'ai 56 ans diabète, 2ieme prise 30 juillet... est-ce que je peux le devancer",
      "text": "ja i 56 ans diabete ,,2iem prise 30 jillet ...est-ce que je peux le devancer"
    },
    {
      "label": "je suis pas vraiment certain de me faire vacciner",
      "text": "chu pas full certain de mfaire vaccine"
    },
    {
      "label": "où est-ce que je peux trouver mon code QR",
      "text": "c ou que jpeu trouver mon code QR"
    },
    {
      "label": "On peut jouer au golf cet été?",
      "text": "on peu tu jouer o golf ctété"
    },
    {
      "label": "je ne me sens pas bien",
      "text": "jme sen pas ben"
    },
    {
      "label": "On va pouvoir retourner à l'école?",
      "text": "on va tu povoir retourné a lecole"
    },
    {
      "label": "il faut que je fasse garder mes enfants par quelqu'un qui est-ce qui peut",
      "text": "fau jfasse garder mes enfants par kk1 c qui qui peu"
    },
    {
      "label": "Je veux changer mon rendez-vous",
      "text": "jveu chnger min rande vou"
    },
    {
      "label": "Le site pour les vaccins marche plus",
      "text": "le site pou les vaccins marche pu"
    },
    {
      "label": "J'ai eu la covid il y a au moins 2 mois et hier j'ai fait tester mon enfant",
      "text": "j'ai eu la covid il y a moin des 2 mois et hier j'ai fait tester mon enfant"
    },
    {
      "label": "Étant donné que je suis immunisé, dois-je m'absenter de mon travail ou si je peux aller travailler",
      "text": "vue que je suis immunisés dois-je m'absenter de ma job ou si je peux aller travailler"
    },
    {
      "label": "Je suis écoeuré d'être enfermé chez nous",
      "text": "jtecoeuré detre pogné chez nous"
    },
    {
      "label": "Bonjour, j'ai eu ma première dose avec le astrazeneca le 21 avril 2021 et ma prochaine dose est prévue le 11 aout 2021",
      "text": "bonjours, j'ai eu ma première dose avec le astrazeneca le 21 avril 2021 et ma prochaine dose est prévue le 11 aout 2021"
    },
    {
      "label": "je sais que la 2ième dose peut être devancée est-ce qu'il a des démarches spéciales pour la devancer",
      "text": "je sais que la 2ième dose peux êtredevancer esce qu'il a des émarche spécial pour la devancer"
    },
    {
      "label": "Quand est-ce que je pourrais avoir ma 2eme dose astrazeneca",
      "text": "quan je peux avoir ma 2iem dos astrazeneca"
    },
    {
      "label": "Je besoin d'un rendez vous pour la covid",
      "text": "je basoen de redivo pour la covid"
    },
    {
      "label": "je ne comprends pas votre logique j'ai le droit de recevoir 8 personnes de bulles differentes",
      "text": "je ne comprends pas vote logique jai le droit de recevoir 8 personnes de bulbes differents"
    },
    {
      "label": "je ne peux pas recevoir mes 3 enfants avec leurs enfants ce qui fait 3 bulles parce que ils sont plus que 8",
      "text": "je ne peut pas recevoir mes 3 enfants avec leurs enfants cecqui fait 3 bukbes perce wue ils sont plus que 8"
    },
    {
      "label": "pas logique ni juste",
      "text": "pas logique ni justeo"
    },
    {
      "label": "est-ce que covishield et astrazeneca sont le même vaccin",
      "text": "covishield et astrazeneca son tu le mème vaccin"
    },
    {
      "label": "oui mais ce n'est pas clair",
      "text": "oui mes se pas claire"
    },
    {
      "label": "j'aimerais changer mon rendez-vous pour la deuxième dose",
      "text": "jaimerai chamge mon rdv pour la 2e dosis"
    },
    {
      "label": "qui est à l'origine de ce covid-19",
      "text": "qui est a l, orrigine de se de se covid-19"
    },
    {
      "label": "c'est bien ca que je pensais",
      "text": "c ben ca q j pensais"
    },
    {
      "label": "impression de me faire niaiser",
      "text": "impression d m faire niaiser"
    },
    {
      "label": "est-ce que ce sera possible en juin ",
      "text": "en juin ses tu possible"
    },
    {
      "label": "combiner 2 sorte de vaccins est-ce possible",
      "text": "combiner 2 sorte de vacin esce posible"
    },
    {
      "label": "est ce que ça fait mal de se faire vacciner merci.",
      "text": "quand tu fait vaccin est ce que sa fait mal merci."
    },
    {
      "label": "j'ai ma première le 20 mars 2021 et on peut avoir la 2ieme est-ce que je peux avoir la deuxième plus de bonheur.",
      "text": "jai ma premiere le 20 mars 2021 et on peut avoir la 2 ieme esque je peux avoir la deuxiieme plus de bonheur"
    },
    {
      "label": "pour la 2 dose je préfères pfizer à covishield que dois-je faire pour modifier mon rendez-vous de la 2 dose",
      "text": "j¸pour la 2 dose je prefaire pifzer a covisheild que doit je faire pour modifier mon rendez vous de la 2 dose"
    },
    {
      "label": "où donner notre rendez-vous",
      "text": "ou donner notre rander vous"
    },
    {
      "label": "pfizer c'est quand ",
      "text": "phszer ces quand"
    },
    {
      "label": "j'ai 82 ans quand est-ce que j'aurais 1ere pfizer",
      "text": "j,ai 82ansquandje l,aueai 1ere phazer"
    },
    {
      "label": "ma belle mère est dans le groupe d'age pour modifier la date et cela ne fonctionne pas",
      "text": "ma bellemere est dand groupe dage pour modifier date et cela ne fonctionne pas"
    },
    {
      "label": "pas capable de prendre un rendez-vous",
      "text": "pasa capable de prendre un rendévous"
    },
    {
      "label": "dans quel langue est-ce que je parle",
      "text": "den quel langue que je parle"
    },
    {
      "label": "je veux savoir où sont les cliniques sans rendez-vous",
      "text": "je veux savoir ou sont les clniques sans randez-vous"
    },
    {
      "label": "j'ai 70 ans, reçu pfizer le 12 avril 2021 et je suis refusé",
      "text": "j ai 70 ans reçu pzfeir 12 avril 2021 et je suis refuser"
    },
    {
      "label": "bonjour moi ma mère et ma blonde on avait un rendez-vous mais puisque ma mère étais malade on ne s'est pas présentées est-ce que c'est possible d'avoir un autre rendez-vous pour nous 3 c'est notre premier vaccin",
      "text": "bonjour moi ma mère et ma blonde on avais un rendevous mes à cause ma mère étais malade on ses pas présenter esque ses possible d'avoir un autre rendevous pour nous 3 s'est notre premier vaccin"
    },
    {
      "label": "c'est de la bullshit",
      "text": "c.est de la boulchite"
    },
    {
      "label": "bonjour ça marche pas votre site, j'ai le droit de m'inscrire et ça dit qu'il y a une erreur dans ma 1e inscription de ma 1e dose . quoi faire, pouvez-vous m'aidez merci :-)",
      "text": "bonjour sa marche va votre site , j'ai le droit de m'inscrire et sa dit que il y a une errer dans ma 1e inscription de ma 1e dose . quoi faire pouvez vous m'aidez merci :-)"
    },
    {
      "label": "je me fait vacciner vendredi j'ai plus peur qu'un enfant. j'ai jamais été malade rien de rien . alors me faire vacciner j'ai peur de mourrir je suis une maman seul avec ses 3 enfants . comment vous pouvez me rassurer",
      "text": "je me fsit vacciner vendredi jainolus owur qun enfant .jai jmais ete malade rien de rien . alora mw.faire vacciner jai oeur de.mourrir je.auis une.maman seul.avwc ses 3 enfants . commwnt vous pouvez me rassurer"
    },
    {
      "label": "symptômes de la covid",
      "text": "simptaumes a la covid"
    },
    {
      "label": "pour les 75 ans et plus date du vaccin svp merci",
      "text": "pour les 75 e plus vfacin dat svp merci g"
    },
    {
      "label": "puis-je augmenter ma 2ieme dose si j'ai 61 ans et immuno-suppressant",
      "text": "peut je augment ma 2ieme dose si je suis 61 et immunosuppressant"
    },
    {
      "label": "numéro du coupon c'est quoi",
      "text": "no du coupon ses quoi"
    },
    {
      "label": "j’attends toujours les codes d'identification pour changer la date du 2ème vaccin",
      "text": "j’ai attainder toujours les cod de i défécations pour changé la date de 2ème vacation"
    },
    {
      "label": "à partir de cette semaine mes 8 semaines sont faites je peux avancer ma 2e dose",
      "text": "a partie de cette semaine mes 8 sem. son faite .je peu avanse ma2e dose"
    },
    {
      "label": "allo, êtes-vous un robot",
      "text": "alo etes vous un robit"
    },
    {
      "label": "c'est pour ma 2eme dose",
      "text": "c,es pour ma 2 ime dose"
    },
    {
      "label": "65 ans est-ce que c'est aujourd'hui",
      "text": "65 ans cest tu aujourdui"
    },
    {
      "label": "bonjour je vous change mon rendez-vous",
      "text": "bonjour je vous change mon ronde vous"
    },
    {
      "label": "je n'ai aucun symptômes",
      "text": "je n.ai aucun symtome"
    },
    {
      "label": "et qu'est-ce que je donne comme preuve est-ce que c'est suffisant",
      "text": "er quesque je donne comme preuse esque c est suffisant"
    },
    {
      "label": "que faire pour une modification à son dossier de vaccination",
      "text": "que faire pour une modifiquation a sont dossier de vaccination"
    },
    {
      "label": "j'aimerais avancer ma deuxième dosse",
      "text": "je amerie avanze ma dexieme dossis"
    },
    {
      "label": "comment je peux annuler un rendez-vous",
      "text": "comme jai peut annuler un ren-divouz"
    },
    {
      "label": "ma première dose était astra et aujourd’hui 2eme dose avec pfizer puis-je être vacciné",
      "text": "ma premiere dose ete astra et aujourdhui 2 iem dose ave pfizer puisje etre vacciné"
    },
    {
      "label": "bonjour ma conjointe a son vaccin le 3 aout mais j'essaie de le rapprocher et ça marque toujours complet va-t-il y avoir d'autres rendez-vous",
      "text": "bonjour ma conjointe a sont vaccin le 3 aout mais j'aissais de le rapproché et sa marque toujours complet va t'il avoir d'autre randévous"
    },
    {
      "label": "j'essaie d'appeler pour notre 2eme dose c'est toujours répondeur depuis mercredi j'ai 71 mon conjoint 73 j'ai pas de nouvelles",
      "text": "jessais dappeler pour notre 2 e dose cest toujour repodeur depuis mercredi jai 71 mon conjoint 73jai pas de nouvel"
    },
    {
      "label": "on ne peut pas m'identifier",
      "text": "on ne peu pas midantife"
    },
    {
      "label": "j'essaie de devancer un rendez-vous de 2ieme dose pour mon frère ..moi je suis venue à bout mais pour mon frère je suis incapable.. puisque quand j'ecris le numéro de téléphone elle me ramène au début.. que faire.",
      "text": "j'aissais de devancer un rendez vous de 2ieme dose pour mon frère ..moi je suis venue about mais pour mon frère je suis incapable..puisque qu'en j'ecris le no .telephone elle me ramene au début..quoi faire."
    },
    {
      "label": "ça frappe à ma porte j'ouvre mais il n'a pas de masque",
      "text": "sa frappe a ma porte jouvre mes iol as pas de masqur"
    },
    {
      "label": "j’ai eux mais 2 vaccins je veux la preuve",
      "text": "j’ai eux mais 2 vasin je veux l’a preuve"
    },
    {
      "label": "pourquoi les preuves d'immunisation reçues ne s'ouvrent pas !!!",
      "text": "pou quoi les preives d’ emunization reçus ne se oeuvre pas !!!"
    }
  ],
  "test": false,
  "type": "spell"
}
